03_augment
…
We implement the same notion as with the mouse data

test_human <- select(human_clean, -c(treatment, cell_line))

zeroes_removed_human <- test_human |>
     select(where(~ !all(.x == 0)))

joined_human <- zero_replacement(zeroes_removed_human, human_clean[1:2])

# A tibble: 36 × 31,194
   cell_line treatment ENSG00000000003 ENSG00000000005 ENSG00000000419
   <chr>     <chr>               <dbl>           <dbl>           <dbl>
 1 A375      DMSO                 15.7        2.83e-10           152. 
 2 A375      G007LK               14.2        2.54e-10           154. 
 3 FemxI     DMSO                 22.2        3.65e-10            89.4
 4 FemxI     G007LK               22.1        6.58e-11            86.7
 5 FemxV     DMSO                 23.6        1.79e-10            64.7
 6 FemxV     G007LK               23.1        5.41e-11            77.4
 7 LOX       DMSO                 19.4        6.68e-11            56.5
 8 LOX       G007LK               20.4        1.04e-10            61.3
 9 MeWo      DMSO                 12.2        1.41e-10           103. 
10 MeWo      G007LK               12.9        9.56e-11            94.5
# ℹ 26 more rows
# ℹ 31,189 more variables: ENSG00000000457 <dbl>, ENSG00000000460 <dbl>,
#   ENSG00000000938 <dbl>, ENSG00000000971 <dbl>, ENSG00000001036 <dbl>,
#   ENSG00000001084 <dbl>, ENSG00000001167 <dbl>, ENSG00000001460 <dbl>,
#   ENSG00000001461 <dbl>, ENSG00000001497 <dbl>, ENSG00000001561 <dbl>,
#   ENSG00000001617 <dbl>, ENSG00000001626 <dbl>, ENSG00000001629 <dbl>,
#   ENSG00000001630 <dbl>, ENSG00000001631 <dbl>, ENSG00000002016 <dbl>, …
…
We can use it for a PCA analysis based on the relative expressions of the gene expressions among the 18 cell lines in the two different conditions.

human_aug <- human_aug |>
  mutate(log2_expression_levels = log2(expression_levels)) |>
  select(-expression_levels)

human_aug_wide_gene <- human_aug |>
  pivot_wider(names_from = gene_id,
              values_from =log2_expression_levels)

# A tibble: 36 × 31,194
   cell_line treatment ENSG00000000003 ENSG00000000005 ENSG00000000419
   <chr>     <chr>               <dbl>           <dbl>           <dbl>
 1 A375      DMSO                 3.97           -31.7            7.24
 2 A375      G007LK               3.82           -31.9            7.27
 3 FemxI     DMSO                 4.47           -31.3            6.48
 4 FemxI     G007LK               4.46           -33.8            6.44
 5 FemxV     DMSO                 4.56           -32.4            6.02
 6 FemxV     G007LK               4.53           -34.1            6.27
 7 LOX       DMSO                 4.28           -33.8            5.82
 8 LOX       G007LK               4.35           -33.2            5.94
 9 MeWo      DMSO                 3.61           -32.7            6.69
10 MeWo      G007LK               3.69           -33.3            6.56
# ℹ 26 more rows
# ℹ 31,189 more variables: ENSG00000000457 <dbl>, ENSG00000000460 <dbl>,
#   ENSG00000000938 <dbl>, ENSG00000000971 <dbl>, ENSG00000001036 <dbl>,
#   ENSG00000001084 <dbl>, ENSG00000001167 <dbl>, ENSG00000001460 <dbl>,
#   ENSG00000001461 <dbl>, ENSG00000001497 <dbl>, ENSG00000001561 <dbl>,
#   ENSG00000001617 <dbl>, ENSG00000001626 <dbl>, ENSG00000001629 <dbl>,
#   ENSG00000001630 <dbl>, ENSG00000001631 <dbl>, ENSG00000002016 <dbl>, …
…
