Describe
…
# A tibble: 39,075 × 2
   gene            zero_count
   <chr>                <int>
 1 ENSG00000000003          0
 2 ENSG00000000005         34
 3 ENSG00000000419          0
 4 ENSG00000000457          0
 5 ENSG00000000460          0
 6 ENSG00000000938         17
 7 ENSG00000000971          0
 8 ENSG00000001036          0
 9 ENSG00000001084          0
10 ENSG00000001167          0
# ℹ 39,065 more rows
…
