Analysis 2 file - Isolated PCA analysis of the human dataset
…
Rotation matrix

# A tibble: 1,122,912 × 3
   column             PC     value
   <chr>           <dbl>     <dbl>
 1 ENSG00000000003     1  0.000745
 2 ENSG00000000003     2  0.00158 
 3 ENSG00000000003     3 -0.00520 
 4 ENSG00000000003     4 -0.00912 
 5 ENSG00000000003     5  0.00240 
 6 ENSG00000000003     6 -0.0172  
 7 ENSG00000000003     7 -0.00559 
 8 ENSG00000000003     8  0.00768 
 9 ENSG00000000003     9 -0.00302 
10 ENSG00000000003    10 -0.00207 
# ℹ 1,122,902 more rows

# A tibble: 36 × 4
      PC std.dev percent cumulative
   <dbl>   <dbl>   <dbl>      <dbl>
 1     1    56.1  0.101       0.101
 2     2    50.8  0.0827      0.184
 3     3    43.7  0.0612      0.245
 4     4    41.5  0.0552      0.300
 5     5    41.2  0.0544      0.354
 6     6    39.1  0.0489      0.403
 7     7    36.9  0.0436      0.447
 8     8    36.2  0.0420      0.489
 9     9    35.3  0.0398      0.529
10    10    34.6  0.0383      0.567
# ℹ 26 more rows
…
