Analysis 3 file - Isolated PCA analysis of the human dataset
…
Saving 7 x 5 in image

# A tibble: 561,456 × 3
   column             PC     value
   <chr>           <dbl>     <dbl>
 1 ENSG00000000003     1  0.00668 
 2 ENSG00000000003     2  0.00753 
 3 ENSG00000000003     3  0.00205 
 4 ENSG00000000003     4 -0.00137 
 5 ENSG00000000003     5  0.00999 
 6 ENSG00000000003     6  0.000322
 7 ENSG00000000003     7  0.00210 
 8 ENSG00000000003     8  0.00526 
 9 ENSG00000000003     9  0.000960
10 ENSG00000000003    10  0.00180 
# ℹ 561,446 more rows
…
